<svg width="100%" height="100%" version="1.1" xmlns="http://www.w3.org/2000/svg" style="background-color: #EEE;">
    <rect x="2%" y="2%" width="96%" height="96%" style="stroke-width:2; stroke:#BBB; fill:rgb(222,222,222);" />
    <svg x="35%" y="35%" width="30%" height="30%" viewBox="0,0,1920,1792">
        <path style="fill:rgb(22,22,22);" d="M960,672q119,0,203.5,84.5t84.5,203.5t-84.5,203.5t-203.5,84.5t-203.5-84.5t-84.5-203.5t84.5-203.5t203.5-84.5z M1664,256q106,0,181,75t75,181l0,896q0,106-75,181t-181,75l-1408,0q-106,0-181-75t-75-181l0-896q0-106,75-181t181-75l224,0l51-136q19-49,69.5-84.5t103.5-35.5l512,0q53,0,103.5,35.5t69.5,84.5l51,136l224,0z M960,1408q185,0,316.5-131.5t131.5-316.5t-131.5-316.5t-316.5-131.5t-316.5,131.5t-131.5,316.5t131.5,316.5t316.5,131.5z" />
    </svg>
    <svg x="20%" y="20%" width="60%" height="60%" viewBox="0,0,1536,1792">
        <path style="fill:rgb(100,100,100,100);" d="M1312,893q0-161-87-295l-754,753q137,89,297,89q111,0,211.5-43.5t173.5-116.5t116-174.5t43-212.5z M313,1192l755-754q-135-91-300-91q-148,0-273,73t-198,199t-73,274q0,162,89,299z M1536,893q0,157-61,300t-163.5,246t-245,164t-298.5,61t-298.5-61t-245-164t-163.5-246t-61-300t61-299.5t163.5-245.5t245-164t298.5-61t298.5,61t245,164t163.5,245.5t61,299.5z"/>
    </svg>
</svg>